{
    "uuu": {
        "vtx_containers": [
            "VSI_LeptonsMod"
        ],
        "selections": [
            "alltriggers",
            "pmuon",
            "medium_plep",
            "4-filter",
            "nDV",
            "fidvol",
            "2track",
            "OS",
            "mumu",
            "2-medium",
            "cosmicveto",
            "mlll",
            "DVmass"
        ]
    }
}